HW6
…
Question 9 (Select a Final Logistic Regression Model)

Using the tools available to you (hypothesis testing, causal diagrams, predicted probability boxplots, false positive and false negative rates, accuracy), fit a variety of models and choose one final model. Be systematic in your process as youll need to describe your model selection process and justify your final model. (Note: for mastery of the Inference > Model Selection objective (see Final Grading Rubric), you must use at least 3 of these model selection tools.)

logmod1 <- CollegeScores %>%
  with(glm(raceSchool ~ MD_EARN_WNE_P6 + degree, family = binomial))

logmod1 %>%
 augment(type.predict = 'response')

## # A tibble: 3,337 x 10
##    .rownames raceSchool MD_EARN_WNE_P6 degree .fitted .resid .std.resid    .hat
##    <chr>     <lgl>               <dbl> <fct>    <dbl>  <dbl>      <dbl>   <dbl>
##  1 1         TRUE                25200 Bache   0.301  1.55       1.55  1.22e-3
##  2 2         FALSE               35100 Bache   0.172 -0.614     -0.614 6.14e-4
##  3 3         TRUE                30700 Bache   0.223  1.73       1.73  6.79e-4
##  4 4         FALSE               36200 Bache   0.160 -0.591     -0.591 6.30e-4
##  5 5         TRUE                22600 Bache   0.343  1.46       1.46  1.72e-3
##  6 6         FALSE               37400 Bache   0.149 -0.568     -0.568 6.59e-4
##  7 7         FALSE               23100 Certi   0.200 -0.669     -0.669 2.02e-3
##  8 8         FALSE               33400 Bache   0.190 -0.650     -0.650 6.10e-4
##  9 9         TRUE                30100 Bache   0.231  1.71       1.71  7.10e-4
## 10 10        FALSE               39500 Bache   0.130 -0.528     -0.528 7.26e-4
## #  with 3,327 more rows, and 2 more variables: .sigma <dbl>, .cooksd <dbl>
…
## # A tibble: 4 x 3
##   raceSchool predictRaceSchool     n
##   <lgl>      <lgl>             <int>
## 1 FALSE      FALSE              1533
## 2 FALSE      TRUE               1081
## 3 TRUE       FALSE               269
## 4 TRUE       TRUE                454

glm.mod.full %>%
 augment(type.predict = 'response')

## # A tibble: 3,262 x 12
##    .rownames raceSchool MD_EARN_WNE_P6 degree region  UGDS .fitted .resid
##    <chr>     <lgl>               <dbl> <fct>  <fct>  <dbl>   <dbl>  <dbl>
##  1 1         TRUE                25200 Bache South   4990   0.328  1.49 
##  2 2         FALSE               35100 Bache South  13186   0.268 -0.790
##  3 3         TRUE                30700 Bache South    351   0.196  1.80 
##  4 4         FALSE               36200 Bache South   7458   0.194 -0.658
##  5 5         TRUE                22600 Bache South   3903   0.360  1.43 
##  6 6         FALSE               37400 Bache South  32177   0.479 -1.14 
##  7 7         FALSE               23100 Certi South   1211   0.174 -0.619
##  8 8         FALSE               33400 Bache South   2732   0.186 -0.641
##  9 9         TRUE                30100 Bache South   4529   0.246  1.67 
## 10 10        FALSE               39500 Bache South  24147   0.330 -0.894
## #  with 3,252 more rows, and 4 more variables: .std.resid <dbl>, .hat <dbl>,
## #   .sigma <dbl>, .cooksd <dbl>
…
## # A tibble: 4 x 3
##   raceSchool predictRaceSchool     n
##   <lgl>      <lgl>             <int>
## 1 FALSE      FALSE              1826
## 2 FALSE      TRUE                759
## 3 TRUE       FALSE               249
## 4 TRUE       TRUE                428

glm.mod.sub %>%
 augment(type.predict = 'response') 

## # A tibble: 3,262 x 12
##    .rownames raceSchool MD_EARN_WNE_P6 degree  UGDS region .fitted .resid
##    <chr>     <lgl>               <dbl> <fct>  <dbl> <fct>    <dbl>  <dbl>
##  1 1         TRUE                25200 Bache  4990 South    0.293  1.57 
##  2 2         FALSE               35100 Bache 13186 South    0.245 -0.749
##  3 3         TRUE                30700 Bache   351 South    0.159  1.92 
##  4 4         FALSE               36200 Bache  7458 South    0.165 -0.600
##  5 5         TRUE                22600 Bache  3903 South    0.323  1.50 
##  6 6         FALSE               37400 Bache 32177 South    0.505 -1.19 
##  7 7         FALSE               23100 Certi  1211 South    0.185 -0.639
##  8 8         FALSE               33400 Bache  2732 South    0.151 -0.573
##  9 9         TRUE                30100 Bache  4529 South    0.211  1.76 
## 10 10        FALSE               39500 Bache 24147 South    0.327 -0.890
## #  with 3,252 more rows, and 4 more variables: .std.resid <dbl>, .hat <dbl>,
## #   .sigma <dbl>, .cooksd <dbl>
…
